<?xml version="1.0" encoding="UTF-8" standalone="yes"?>
<project basedir="C:/Users/Jelena/Desktop/ChannelCombinationAlgorithm/ChannelsCombinationAlgorithm/ChannelCombinationAlgorithm/framework" name="framework">
	<target description="Assembling .a and .s files..." name="casm">
		<delete file="C:/Users/Jelena/Desktop/ChannelCombinationAlgorithm/ChannelsCombinationAlgorithm/ChannelCombinationAlgorithm/framework/output/src/mtechoDataVars.O"/>
		<exec executable="C:/CirrusDSP/bin/casm" failonerror="true" resultProperty="casmResult0">
			<arg value="C:/Users/Jelena/Desktop/ChannelCombinationAlgorithm/ChannelsCombinationAlgorithm/ChannelCombinationAlgorithm/framework/src/mtechoDataVars.a"/>
			<arg value="--debug"/>
			<arg value="-c"/>
			<arg value="-s"/>
			<arg value="-e"/>
			<arg value="--cdl"/>
			<arg value="-D_COMMON_INC_PATH_=C:/CirrusDSP/crystal32/common/inc/"/>
			<arg value="-IC:/CirrusDSP/include/"/>
			<arg value="-IC:/CirrusDSP/include/dsplib/"/>
			<arg value="-IC:/Users/Jelena/Desktop/ChannelCombinationAlgorithm/ChannelsCombinationAlgorithm/ChannelCombinationAlgorithm/framework/inc/"/>
			<arg value="-IC:/Users/Jelena/Desktop/ChannelCombinationAlgorithm/ChannelsCombinationAlgorithm/ChannelCombinationAlgorithm/framework/gen/inc/"/>
			<arg value="-IC:/Users/Jelena/Desktop/ChannelCombinationAlgorithm/ChannelsCombinationAlgorithm/ChannelCombinationAlgorithm/framework/inc"/>
			<arg value="-IC:/Users/Jelena/Desktop/ChannelCombinationAlgorithm/ChannelsCombinationAlgorithm/ChannelCombinationAlgorithm/framework/gen/inc"/>
			<arg value="-lC:/Users/Jelena/Desktop/ChannelCombinationAlgorithm/ChannelsCombinationAlgorithm/ChannelCombinationAlgorithm/framework/output/src/mtechoDataVars.lst"/>
			<arg value="-oC:/Users/Jelena/Desktop/ChannelCombinationAlgorithm/ChannelsCombinationAlgorithm/ChannelCombinationAlgorithm/framework/output/src/mtechoDataVars.O"/>
			<arg value="-iC:/CirrusDSP/crystal32/common/inc/base.h"/>
			<arg value="-D_LOCAL_SRC_PATH_=src/"/>
			<arg value="-D_LOCAL_INC_PATH_=inc/"/>
			<arg value="-D_ROUTER_INC_PATH_=rom_inc/"/>
		</exec>
		<delete file="C:/Users/Jelena/Desktop/ChannelCombinationAlgorithm/ChannelsCombinationAlgorithm/ChannelCombinationAlgorithm/framework/output/src/framework_os_interface.O"/>
		<exec executable="C:/CirrusDSP/bin/casm" failonerror="true" resultProperty="casmResult1">
			<arg value="C:/Users/Jelena/Desktop/ChannelCombinationAlgorithm/ChannelsCombinationAlgorithm/ChannelCombinationAlgorithm/framework/src/framework_os_interface.a"/>
			<arg value="--debug"/>
			<arg value="-c"/>
			<arg value="-s"/>
			<arg value="-e"/>
			<arg value="--cdl"/>
			<arg value="-D_COMMON_INC_PATH_=C:/CirrusDSP/crystal32/common/inc/"/>
			<arg value="-IC:/CirrusDSP/include/"/>
			<arg value="-IC:/CirrusDSP/include/dsplib/"/>
			<arg value="-IC:/Users/Jelena/Desktop/ChannelCombinationAlgorithm/ChannelsCombinationAlgorithm/ChannelCombinationAlgorithm/framework/inc/"/>
			<arg value="-IC:/Users/Jelena/Desktop/ChannelCombinationAlgorithm/ChannelsCombinationAlgorithm/ChannelCombinationAlgorithm/framework/gen/inc/"/>
			<arg value="-IC:/Users/Jelena/Desktop/ChannelCombinationAlgorithm/ChannelsCombinationAlgorithm/ChannelCombinationAlgorithm/framework/inc"/>
			<arg value="-IC:/Users/Jelena/Desktop/ChannelCombinationAlgorithm/ChannelsCombinationAlgorithm/ChannelCombinationAlgorithm/framework/gen/inc"/>
			<arg value="-lC:/Users/Jelena/Desktop/ChannelCombinationAlgorithm/ChannelsCombinationAlgorithm/ChannelCombinationAlgorithm/framework/output/src/framework_os_interface.lst"/>
			<arg value="-oC:/Users/Jelena/Desktop/ChannelCombinationAlgorithm/ChannelsCombinationAlgorithm/ChannelCombinationAlgorithm/framework/output/src/framework_os_interface.O"/>
			<arg value="-iC:/CirrusDSP/crystal32/common/inc/base.h"/>
			<arg value="-D_LOCAL_SRC_PATH_=src/"/>
			<arg value="-D_LOCAL_INC_PATH_=inc/"/>
			<arg value="-D_ROUTER_INC_PATH_=rom_inc/"/>
		</exec>
		<delete file="C:/Users/Jelena/Desktop/ChannelCombinationAlgorithm/ChannelsCombinationAlgorithm/ChannelCombinationAlgorithm/framework/output/src/framework_main.O"/>
		<exec executable="C:/CirrusDSP/bin/casm" failonerror="true" resultProperty="casmResult2">
			<arg value="C:/Users/Jelena/Desktop/ChannelCombinationAlgorithm/ChannelsCombinationAlgorithm/ChannelCombinationAlgorithm/framework/src/framework_main.a"/>
			<arg value="--debug"/>
			<arg value="-c"/>
			<arg value="-s"/>
			<arg value="-e"/>
			<arg value="--cdl"/>
			<arg value="-D_COMMON_INC_PATH_=C:/CirrusDSP/crystal32/common/inc/"/>
			<arg value="-IC:/CirrusDSP/include/"/>
			<arg value="-IC:/CirrusDSP/include/dsplib/"/>
			<arg value="-IC:/Users/Jelena/Desktop/ChannelCombinationAlgorithm/ChannelsCombinationAlgorithm/ChannelCombinationAlgorithm/framework/inc/"/>
			<arg value="-IC:/Users/Jelena/Desktop/ChannelCombinationAlgorithm/ChannelsCombinationAlgorithm/ChannelCombinationAlgorithm/framework/gen/inc/"/>
			<arg value="-IC:/Users/Jelena/Desktop/ChannelCombinationAlgorithm/ChannelsCombinationAlgorithm/ChannelCombinationAlgorithm/framework/inc"/>
			<arg value="-IC:/Users/Jelena/Desktop/ChannelCombinationAlgorithm/ChannelsCombinationAlgorithm/ChannelCombinationAlgorithm/framework/gen/inc"/>
			<arg value="-lC:/Users/Jelena/Desktop/ChannelCombinationAlgorithm/ChannelsCombinationAlgorithm/ChannelCombinationAlgorithm/framework/output/src/framework_main.lst"/>
			<arg value="-oC:/Users/Jelena/Desktop/ChannelCombinationAlgorithm/ChannelsCombinationAlgorithm/ChannelCombinationAlgorithm/framework/output/src/framework_main.O"/>
			<arg value="-iC:/CirrusDSP/crystal32/common/inc/base.h"/>
			<arg value="-D_LOCAL_SRC_PATH_=src/"/>
			<arg value="-D_LOCAL_INC_PATH_=inc/"/>
			<arg value="-D_ROUTER_INC_PATH_=rom_inc/"/>
		</exec>
		<delete file="C:/Users/Jelena/Desktop/ChannelCombinationAlgorithm/ChannelsCombinationAlgorithm/ChannelCombinationAlgorithm/framework/output/src/channelCombination.O"/>
		<exec executable="C:/CirrusDSP/bin/casm" failonerror="true" resultProperty="casmResult3">
			<arg value="C:/Users/Jelena/Desktop/ChannelCombinationAlgorithm/ChannelsCombinationAlgorithm/ChannelCombinationAlgorithm/framework/src/channelCombination.a"/>
			<arg value="--debug"/>
			<arg value="-c"/>
			<arg value="-s"/>
			<arg value="-e"/>
			<arg value="--cdl"/>
			<arg value="-D_COMMON_INC_PATH_=C:/CirrusDSP/crystal32/common/inc/"/>
			<arg value="-IC:/CirrusDSP/include/"/>
			<arg value="-IC:/CirrusDSP/include/dsplib/"/>
			<arg value="-IC:/Users/Jelena/Desktop/ChannelCombinationAlgorithm/ChannelsCombinationAlgorithm/ChannelCombinationAlgorithm/framework/inc/"/>
			<arg value="-IC:/Users/Jelena/Desktop/ChannelCombinationAlgorithm/ChannelsCombinationAlgorithm/ChannelCombinationAlgorithm/framework/gen/inc/"/>
			<arg value="-IC:/Users/Jelena/Desktop/ChannelCombinationAlgorithm/ChannelsCombinationAlgorithm/ChannelCombinationAlgorithm/framework/inc"/>
			<arg value="-IC:/Users/Jelena/Desktop/ChannelCombinationAlgorithm/ChannelsCombinationAlgorithm/ChannelCombinationAlgorithm/framework/gen/inc"/>
			<arg value="-lC:/Users/Jelena/Desktop/ChannelCombinationAlgorithm/ChannelsCombinationAlgorithm/ChannelCombinationAlgorithm/framework/output/src/channelCombination.lst"/>
			<arg value="-oC:/Users/Jelena/Desktop/ChannelCombinationAlgorithm/ChannelsCombinationAlgorithm/ChannelCombinationAlgorithm/framework/output/src/channelCombination.O"/>
			<arg value="-iC:/CirrusDSP/crystal32/common/inc/base.h"/>
			<arg value="-D_LOCAL_SRC_PATH_=src/"/>
			<arg value="-D_LOCAL_INC_PATH_=inc/"/>
			<arg value="-D_ROUTER_INC_PATH_=rom_inc/"/>
		</exec>
		<condition property="assemblyError">
			<or>
				<not>
					<equals arg1="${casmResult0}" arg2="0"/>
				</not>
				<not>
					<equals arg1="${casmResult1}" arg2="0"/>
				</not>
				<not>
					<equals arg1="${casmResult2}" arg2="0"/>
				</not>
				<not>
					<equals arg1="${casmResult3}" arg2="0"/>
				</not>
			</or>
		</condition>
	</target>
	<target if="assemblyError" name="checkAssemblyErrors">
		<fail message="Please check assembler errors."/>
	</target>
</project>