^C:\USERS\JELENA\DESKTOP\CHANNELCOMBINATIONALGORITHM\CHANNELSCOMBINATIONALGORITHM\CHANNELCOMBINATIONALGORITHM\MODEL1\DEBUG\MAIN.OBJ|C:\USERS\JELENA\DESKTOP\CHANNELCOMBINATIONALGORITHM\CHANNELSCOMBINATIONALGORITHM\CHANNELCOMBINATIONALGORITHM\MODEL1\DEBUG\MODEL1.EXE.EMBED.MANIFEST.RES|C:\USERS\JELENA\DESKTOP\CHANNELCOMBINATIONALGORITHM\CHANNELSCOMBINATIONALGORITHM\CHANNELCOMBINATIONALGORITHM\MODEL1\DEBUG\WAVHEADER.OBJ
/ERRORREPORT:PROMPT /OUT:"C:\Users\Jelena\Desktop\ChannelCombinationAlgorithm\ChannelsCombinationAlgorithm\ChannelCombinationAlgorithm\Debug\model1.exe" /INCREMENTAL /NOLOGO kernel32.lib user32.lib gdi32.lib winspool.lib comdlg32.lib advapi32.lib shell32.lib ole32.lib oleaut32.lib uuid.lib odbc32.lib odbccp32.lib /MANIFEST /ManifestFile:"Debug\model1.exe.intermediate.manifest" /MANIFESTUAC:"level='asInvoker' uiAccess='false'" /DEBUG /PDB:"C:\Users\Jelena\Desktop\ChannelCombinationAlgorithm\ChannelsCombinationAlgorithm\ChannelCombinationAlgorithm\Debug\model1.pdb" /SUBSYSTEM:CONSOLE /TLBID:1 /DYNAMICBASE /NXCOMPAT /IMPLIB:"C:\Users\Jelena\Desktop\ChannelCombinationAlgorithm\ChannelsCombinationAlgorithm\ChannelCombinationAlgorithm\Debug\model1.lib" /MACHINE:X86 Debug\model1.exe.embed.manifest.res
Debug\main.obj
Debug\WAVheader.obj
